(kicad_sch (version 20211123) (generator eeschema)

  (uuid ac125cf9-ca75-41d3-a106-8f8db985d5c8)

  (paper "A4")

  (lib_symbols
    (symbol "Device:C" (pin_numbers hide) (pin_names (offset 0.254)) (in_bom yes) (on_board yes)
      (property "Reference" "C" (id 0) (at 0.635 2.54 0)
        (effects (font (size 1.27 1.27)) (justify left))
      )
      (property "Value" "C" (id 1) (at 0.635 -2.54 0)
        (effects (font (size 1.27 1.27)) (justify left))
      )
      (property "Footprint" "" (id 2) (at 0.9652 -3.81 0)
        (effects (font (size 1.27 1.27)) hide)
      )
      (property "Datasheet" "~" (id 3) (at 0 0 0)
        (effects (font (size 1.27 1.27)) hide)
      )
      (property "ki_keywords" "cap capacitor" (id 4) (at 0 0 0)
        (effects (font (size 1.27 1.27)) hide)
      )
      (property "ki_description" "Unpolarized capacitor" (id 5) (at 0 0 0)
        (effects (font (size 1.27 1.27)) hide)
      )
      (property "ki_fp_filters" "C_*" (id 6) (at 0 0 0)
        (effects (font (size 1.27 1.27)) hide)
      )
      (symbol "C_0_1"
        (polyline
          (pts
            (xy -2.032 -0.762)
            (xy 2.032 -0.762)
          )
          (stroke (width 0.508) (type default) (color 0 0 0 0))
          (fill (type none))
        )
        (polyline
          (pts
            (xy -2.032 0.762)
            (xy 2.032 0.762)
          )
          (stroke (width 0.508) (type default) (color 0 0 0 0))
          (fill (type none))
        )
      )
      (symbol "C_1_1"
        (pin passive line (at 0 3.81 270) (length 2.794)
          (name "~" (effects (font (size 1.27 1.27))))
          (number "1" (effects (font (size 1.27 1.27))))
        )
        (pin passive line (at 0 -3.81 90) (length 2.794)
          (name "~" (effects (font (size 1.27 1.27))))
          (number "2" (effects (font (size 1.27 1.27))))
        )
      )
    )
    (symbol "Device:D_Schottky" (pin_numbers hide) (pin_names (offset 1.016) hide) (in_bom yes) (on_board yes)
      (property "Reference" "D" (id 0) (at 0 2.54 0)
        (effects (font (size 1.27 1.27)))
      )
      (property "Value" "D_Schottky" (id 1) (at 0 -2.54 0)
        (effects (font (size 1.27 1.27)))
      )
      (property "Footprint" "" (id 2) (at 0 0 0)
        (effects (font (size 1.27 1.27)) hide)
      )
      (property "Datasheet" "~" (id 3) (at 0 0 0)
        (effects (font (size 1.27 1.27)) hide)
      )
      (property "ki_keywords" "diode Schottky" (id 4) (at 0 0 0)
        (effects (font (size 1.27 1.27)) hide)
      )
      (property "ki_description" "Schottky diode" (id 5) (at 0 0 0)
        (effects (font (size 1.27 1.27)) hide)
      )
      (property "ki_fp_filters" "TO-???* *_Diode_* *SingleDiode* D_*" (id 6) (at 0 0 0)
        (effects (font (size 1.27 1.27)) hide)
      )
      (symbol "D_Schottky_0_1"
        (polyline
          (pts
            (xy 1.27 0)
            (xy -1.27 0)
          )
          (stroke (width 0) (type default) (color 0 0 0 0))
          (fill (type none))
        )
        (polyline
          (pts
            (xy 1.27 1.27)
            (xy 1.27 -1.27)
            (xy -1.27 0)
            (xy 1.27 1.27)
          )
          (stroke (width 0.254) (type default) (color 0 0 0 0))
          (fill (type none))
        )
        (polyline
          (pts
            (xy -1.905 0.635)
            (xy -1.905 1.27)
            (xy -1.27 1.27)
            (xy -1.27 -1.27)
            (xy -0.635 -1.27)
            (xy -0.635 -0.635)
          )
          (stroke (width 0.254) (type default) (color 0 0 0 0))
          (fill (type none))
        )
      )
      (symbol "D_Schottky_1_1"
        (pin passive line (at -3.81 0 0) (length 2.54)
          (name "K" (effects (font (size 1.27 1.27))))
          (number "1" (effects (font (size 1.27 1.27))))
        )
        (pin passive line (at 3.81 0 180) (length 2.54)
          (name "A" (effects (font (size 1.27 1.27))))
          (number "2" (effects (font (size 1.27 1.27))))
        )
      )
    )
    (symbol "Device:L" (pin_numbers hide) (pin_names (offset 1.016) hide) (in_bom yes) (on_board yes)
      (property "Reference" "L" (id 0) (at -1.27 0 90)
        (effects (font (size 1.27 1.27)))
      )
      (property "Value" "L" (id 1) (at 1.905 0 90)
        (effects (font (size 1.27 1.27)))
      )
      (property "Footprint" "" (id 2) (at 0 0 0)
        (effects (font (size 1.27 1.27)) hide)
      )
      (property "Datasheet" "~" (id 3) (at 0 0 0)
        (effects (font (size 1.27 1.27)) hide)
      )
      (property "ki_keywords" "inductor choke coil reactor magnetic" (id 4) (at 0 0 0)
        (effects (font (size 1.27 1.27)) hide)
      )
      (property "ki_description" "Inductor" (id 5) (at 0 0 0)
        (effects (font (size 1.27 1.27)) hide)
      )
      (property "ki_fp_filters" "Choke_* *Coil* Inductor_* L_*" (id 6) (at 0 0 0)
        (effects (font (size 1.27 1.27)) hide)
      )
      (symbol "L_0_1"
        (arc (start 0 -2.54) (mid 0.635 -1.905) (end 0 -1.27)
          (stroke (width 0) (type default) (color 0 0 0 0))
          (fill (type none))
        )
        (arc (start 0 -1.27) (mid 0.635 -0.635) (end 0 0)
          (stroke (width 0) (type default) (color 0 0 0 0))
          (fill (type none))
        )
        (arc (start 0 0) (mid 0.635 0.635) (end 0 1.27)
          (stroke (width 0) (type default) (color 0 0 0 0))
          (fill (type none))
        )
        (arc (start 0 1.27) (mid 0.635 1.905) (end 0 2.54)
          (stroke (width 0) (type default) (color 0 0 0 0))
          (fill (type none))
        )
      )
      (symbol "L_1_1"
        (pin passive line (at 0 3.81 270) (length 1.27)
          (name "1" (effects (font (size 1.27 1.27))))
          (number "1" (effects (font (size 1.27 1.27))))
        )
        (pin passive line (at 0 -3.81 90) (length 1.27)
          (name "2" (effects (font (size 1.27 1.27))))
          (number "2" (effects (font (size 1.27 1.27))))
        )
      )
    )
    (symbol "Device:R" (pin_numbers hide) (pin_names (offset 0)) (in_bom yes) (on_board yes)
      (property "Reference" "R" (id 0) (at 2.032 0 90)
        (effects (font (size 1.27 1.27)))
      )
      (property "Value" "R" (id 1) (at 0 0 90)
        (effects (font (size 1.27 1.27)))
      )
      (property "Footprint" "" (id 2) (at -1.778 0 90)
        (effects (font (size 1.27 1.27)) hide)
      )
      (property "Datasheet" "~" (id 3) (at 0 0 0)
        (effects (font (size 1.27 1.27)) hide)
      )
      (property "ki_keywords" "R res resistor" (id 4) (at 0 0 0)
        (effects (font (size 1.27 1.27)) hide)
      )
      (property "ki_description" "Resistor" (id 5) (at 0 0 0)
        (effects (font (size 1.27 1.27)) hide)
      )
      (property "ki_fp_filters" "R_*" (id 6) (at 0 0 0)
        (effects (font (size 1.27 1.27)) hide)
      )
      (symbol "R_0_1"
        (rectangle (start -1.016 -2.54) (end 1.016 2.54)
          (stroke (width 0.254) (type default) (color 0 0 0 0))
          (fill (type none))
        )
      )
      (symbol "R_1_1"
        (pin passive line (at 0 3.81 270) (length 1.27)
          (name "~" (effects (font (size 1.27 1.27))))
          (number "1" (effects (font (size 1.27 1.27))))
        )
        (pin passive line (at 0 -3.81 90) (length 1.27)
          (name "~" (effects (font (size 1.27 1.27))))
          (number "2" (effects (font (size 1.27 1.27))))
        )
      )
    )
    (symbol "Regulator_Switching:LM2731YMF" (pin_names (offset 0.254)) (in_bom yes) (on_board yes)
      (property "Reference" "U" (id 0) (at -5.08 6.35 0)
        (effects (font (size 1.27 1.27)) (justify left))
      )
      (property "Value" "LM2731YMF" (id 1) (at 0 6.35 0)
        (effects (font (size 1.27 1.27)) (justify left))
      )
      (property "Footprint" "Package_TO_SOT_SMD:SOT-23-5" (id 2) (at 1.27 -6.35 0)
        (effects (font (size 1.27 1.27) italic) (justify left) hide)
      )
      (property "Datasheet" "http://www.ti.com/lit/ds/symlink/lm2731.pdf" (id 3) (at 0 2.54 0)
        (effects (font (size 1.27 1.27)) hide)
      )
      (property "ki_keywords" "Miniature Step-Up Boost Voltage Regulator" (id 4) (at 0 0 0)
        (effects (font (size 1.27 1.27)) hide)
      )
      (property "ki_description" "LM27313, 1.8A, 22Vout Boost Voltage Regulator, 600KHz Frequency," (id 5) (at 0 0 0)
        (effects (font (size 1.27 1.27)) hide)
      )
      (property "ki_fp_filters" "SOT?23*" (id 6) (at 0 0 0)
        (effects (font (size 1.27 1.27)) hide)
      )
      (symbol "LM2731YMF_0_1"
        (rectangle (start -5.08 5.08) (end 5.08 -5.08)
          (stroke (width 0.254) (type default) (color 0 0 0 0))
          (fill (type background))
        )
      )
      (symbol "LM2731YMF_1_1"
        (pin output line (at 7.62 2.54 180) (length 2.54)
          (name "SW" (effects (font (size 1.27 1.27))))
          (number "1" (effects (font (size 1.27 1.27))))
        )
        (pin power_in line (at 0 -7.62 90) (length 2.54)
          (name "GND" (effects (font (size 1.27 1.27))))
          (number "2" (effects (font (size 1.27 1.27))))
        )
        (pin input line (at 7.62 -2.54 180) (length 2.54)
          (name "FB" (effects (font (size 1.27 1.27))))
          (number "3" (effects (font (size 1.27 1.27))))
        )
        (pin input line (at -7.62 -2.54 0) (length 2.54)
          (name "EN" (effects (font (size 1.27 1.27))))
          (number "4" (effects (font (size 1.27 1.27))))
        )
        (pin input line (at -7.62 2.54 0) (length 2.54)
          (name "VIN" (effects (font (size 1.27 1.27))))
          (number "5" (effects (font (size 1.27 1.27))))
        )
      )
    )
    (symbol "power:GND" (power) (pin_names (offset 0)) (in_bom yes) (on_board yes)
      (property "Reference" "#PWR" (id 0) (at 0 -6.35 0)
        (effects (font (size 1.27 1.27)) hide)
      )
      (property "Value" "GND" (id 1) (at 0 -3.81 0)
        (effects (font (size 1.27 1.27)))
      )
      (property "Footprint" "" (id 2) (at 0 0 0)
        (effects (font (size 1.27 1.27)) hide)
      )
      (property "Datasheet" "" (id 3) (at 0 0 0)
        (effects (font (size 1.27 1.27)) hide)
      )
      (property "ki_keywords" "global power" (id 4) (at 0 0 0)
        (effects (font (size 1.27 1.27)) hide)
      )
      (property "ki_description" "Power symbol creates a global label with name \"GND\" , ground" (id 5) (at 0 0 0)
        (effects (font (size 1.27 1.27)) hide)
      )
      (symbol "GND_0_1"
        (polyline
          (pts
            (xy 0 0)
            (xy 0 -1.27)
            (xy 1.27 -1.27)
            (xy 0 -2.54)
            (xy -1.27 -1.27)
            (xy 0 -1.27)
          )
          (stroke (width 0) (type default) (color 0 0 0 0))
          (fill (type none))
        )
      )
      (symbol "GND_1_1"
        (pin power_in line (at 0 0 270) (length 0) hide
          (name "GND" (effects (font (size 1.27 1.27))))
          (number "1" (effects (font (size 1.27 1.27))))
        )
      )
    )
  )

  (junction (at 116.84 85.09) (diameter 0) (color 0 0 0 0)
    (uuid 21a64bdc-6f06-44a9-9227-d69967e0ec9a)
  )
  (junction (at 171.45 77.47) (diameter 0) (color 0 0 0 0)
    (uuid 5a02e92e-72f8-420c-8f52-a118eabc6048)
  )
  (junction (at 116.84 95.25) (diameter 0) (color 0 0 0 0)
    (uuid 67384696-24d0-47a7-8084-a5996d3cd18d)
  )
  (junction (at 171.45 92.71) (diameter 0) (color 0 0 0 0)
    (uuid 8f767d34-e3d9-46a3-bc3e-87bc617b5583)
  )
  (junction (at 152.4 77.47) (diameter 0) (color 0 0 0 0)
    (uuid a3cb6ca8-140e-4731-993e-6fa770c8aa39)
  )
  (junction (at 158.75 92.71) (diameter 0) (color 0 0 0 0)
    (uuid aa11d2c6-fbe3-4d77-80ea-20095b714df8)
  )
  (junction (at 171.45 82.55) (diameter 0) (color 0 0 0 0)
    (uuid aefdfe7e-6c6c-44fa-8576-ba246e8d8ef5)
  )
  (junction (at 116.84 77.47) (diameter 0) (color 0 0 0 0)
    (uuid d92bfe33-7726-4860-86be-f15b5750fadb)
  )
  (junction (at 152.4 92.71) (diameter 0) (color 0 0 0 0)
    (uuid e81813cc-68d9-44e2-8e45-099aff21b73d)
  )

  (wire (pts (xy 153.67 77.47) (xy 152.4 77.47))
    (stroke (width 0) (type default) (color 0 0 0 0))
    (uuid 030b5840-2e9f-4e59-8f10-c19d231aea1d)
  )
  (wire (pts (xy 113.03 77.47) (xy 116.84 77.47))
    (stroke (width 0) (type default) (color 0 0 0 0))
    (uuid 0a1d3f35-1be8-440f-85f4-0014cf579a27)
  )
  (wire (pts (xy 134.62 77.47) (xy 152.4 77.47))
    (stroke (width 0) (type default) (color 0 0 0 0))
    (uuid 0b1cf4d7-e72e-4e54-b873-c87dded486d6)
  )
  (wire (pts (xy 161.29 77.47) (xy 171.45 77.47))
    (stroke (width 0) (type default) (color 0 0 0 0))
    (uuid 0b3c7179-7264-439e-8f4c-278e85d31335)
  )
  (wire (pts (xy 116.84 77.47) (xy 127 77.47))
    (stroke (width 0) (type default) (color 0 0 0 0))
    (uuid 0f83af93-b950-41d6-a6ab-38402ce86964)
  )
  (wire (pts (xy 171.45 82.55) (xy 171.45 92.71))
    (stroke (width 0) (type default) (color 0 0 0 0))
    (uuid 11572332-1e02-45d5-9520-268eb37de586)
  )
  (wire (pts (xy 152.4 77.47) (xy 152.4 87.63))
    (stroke (width 0) (type default) (color 0 0 0 0))
    (uuid 13334a3d-3322-4e45-bf70-3e15a75532d7)
  )
  (wire (pts (xy 152.4 92.71) (xy 152.4 95.25))
    (stroke (width 0) (type default) (color 0 0 0 0))
    (uuid 13bf8e69-ab75-41e2-a5ae-24d656bfec12)
  )
  (wire (pts (xy 142.24 97.79) (xy 142.24 101.6))
    (stroke (width 0) (type default) (color 0 0 0 0))
    (uuid 14742f31-5836-4798-833d-e55f1721e0bf)
  )
  (wire (pts (xy 171.45 92.71) (xy 171.45 95.25))
    (stroke (width 0) (type default) (color 0 0 0 0))
    (uuid 25b45ab8-baf0-453a-b310-2b7848e7ef83)
  )
  (wire (pts (xy 161.29 82.55) (xy 158.75 82.55))
    (stroke (width 0) (type default) (color 0 0 0 0))
    (uuid 28edd33c-47e1-48bc-bf02-f9aa9b9c82d0)
  )
  (wire (pts (xy 134.62 87.63) (xy 133.35 87.63))
    (stroke (width 0) (type default) (color 0 0 0 0))
    (uuid 2afe6343-4eb4-4cab-9e9d-3327858af2a9)
  )
  (polyline (pts (xy 101.6 142.24) (xy 101.6 115.57))
    (stroke (width 0) (type default) (color 0 0 0 0))
    (uuid 2b8a3367-f6f5-4acb-9f2b-b41c38912ba4)
  )

  (wire (pts (xy 133.35 87.63) (xy 133.35 85.09))
    (stroke (width 0) (type default) (color 0 0 0 0))
    (uuid 393feda1-6e37-4e84-bc02-9f284d0d2ac6)
  )
  (wire (pts (xy 116.84 85.09) (xy 116.84 95.25))
    (stroke (width 0) (type default) (color 0 0 0 0))
    (uuid 43049ba4-d214-437f-adbf-ee21d7ce4fe0)
  )
  (wire (pts (xy 168.91 92.71) (xy 171.45 92.71))
    (stroke (width 0) (type default) (color 0 0 0 0))
    (uuid 496fd31b-eaf0-4d32-b492-df950534ebad)
  )
  (wire (pts (xy 116.84 85.09) (xy 133.35 85.09))
    (stroke (width 0) (type default) (color 0 0 0 0))
    (uuid 548ba322-61b1-4630-950f-174d5b9def0c)
  )
  (wire (pts (xy 171.45 102.87) (xy 171.45 104.14))
    (stroke (width 0) (type default) (color 0 0 0 0))
    (uuid 57225ca5-0231-4292-92ad-683819f5f7ef)
  )
  (wire (pts (xy 152.4 102.87) (xy 152.4 104.14))
    (stroke (width 0) (type default) (color 0 0 0 0))
    (uuid 61daef75-ac46-4f8e-b4b7-21bf309a2a59)
  )
  (wire (pts (xy 116.84 102.87) (xy 116.84 104.14))
    (stroke (width 0) (type default) (color 0 0 0 0))
    (uuid 6d964d16-6500-4b5d-8cbe-2c15e2d99549)
  )
  (polyline (pts (xy 63.5 115.57) (xy 101.6 115.57))
    (stroke (width 0) (type default) (color 0 0 0 0))
    (uuid 7b64a40b-e43f-43f3-9a31-1f0613378d6a)
  )

  (wire (pts (xy 149.86 87.63) (xy 152.4 87.63))
    (stroke (width 0) (type default) (color 0 0 0 0))
    (uuid 81ccd24e-2fa6-40c3-8c11-a906117ef909)
  )
  (wire (pts (xy 134.62 92.71) (xy 134.62 95.25))
    (stroke (width 0) (type default) (color 0 0 0 0))
    (uuid 87a1b012-9b7a-469f-a193-21ce43a3db85)
  )
  (polyline (pts (xy 63.5 115.57) (xy 63.5 142.24))
    (stroke (width 0) (type default) (color 0 0 0 0))
    (uuid 87bf75c9-8816-4e38-ad94-8e8f42aef0ee)
  )

  (wire (pts (xy 168.91 82.55) (xy 171.45 82.55))
    (stroke (width 0) (type default) (color 0 0 0 0))
    (uuid 88e8f11d-8857-4f1b-ac2d-69c5ca3ec52d)
  )
  (wire (pts (xy 152.4 92.71) (xy 158.75 92.71))
    (stroke (width 0) (type default) (color 0 0 0 0))
    (uuid c652d872-c922-4282-be9d-f17b18a1f5d7)
  )
  (wire (pts (xy 149.86 92.71) (xy 152.4 92.71))
    (stroke (width 0) (type default) (color 0 0 0 0))
    (uuid dc3a940a-d17d-407a-975f-7ad83b31d90e)
  )
  (wire (pts (xy 171.45 77.47) (xy 171.45 82.55))
    (stroke (width 0) (type default) (color 0 0 0 0))
    (uuid e1624061-0f31-4f53-b434-80fce3e50eb4)
  )
  (wire (pts (xy 134.62 95.25) (xy 116.84 95.25))
    (stroke (width 0) (type default) (color 0 0 0 0))
    (uuid ebca75c0-16f4-4292-b82d-980ea7ba5108)
  )
  (wire (pts (xy 116.84 77.47) (xy 116.84 85.09))
    (stroke (width 0) (type default) (color 0 0 0 0))
    (uuid ec17436b-da87-4615-871a-fd5285439294)
  )
  (wire (pts (xy 158.75 92.71) (xy 161.29 92.71))
    (stroke (width 0) (type default) (color 0 0 0 0))
    (uuid ee87a968-9f19-4bd8-82e7-f054125ad9df)
  )
  (wire (pts (xy 171.45 77.47) (xy 179.07 77.47))
    (stroke (width 0) (type default) (color 0 0 0 0))
    (uuid f198890a-1ef2-48d1-adbf-a660af02e974)
  )
  (wire (pts (xy 158.75 82.55) (xy 158.75 92.71))
    (stroke (width 0) (type default) (color 0 0 0 0))
    (uuid f72d0eee-ca0c-4b9b-9c51-4de01f609a95)
  )
  (polyline (pts (xy 63.5 142.24) (xy 101.6 142.24))
    (stroke (width 0) (type default) (color 0 0 0 0))
    (uuid f8ee0cd9-eb55-4050-9816-a9e0abf32c15)
  )

  (text "5V" (at 113.03 73.66 0)
    (effects (font (size 1.27 1.27)) (justify left bottom))
    (uuid 4a92f8d7-8b3d-460b-a2f8-61e3570390a3)
  )
  (text "8V" (at 175.26 73.66 0)
    (effects (font (size 1.27 1.27)) (justify left bottom))
    (uuid 690f11b8-fbe7-4fd8-a4f0-5c5c7594bc97)
  )
  (text "- A minimum value of 13.3 kΩ is\nrecommended for R2"
    (at 66.04 132.08 0)
    (effects (font (size 1.27 1.27)) (justify left bottom))
    (uuid 6c4f1ac6-a5b0-4325-854b-854ab844f7a8)
  )
  (text "NOTES:" (at 66.04 120.65 0)
    (effects (font (size 1.27 1.27)) (justify left bottom))
    (uuid 8308dedd-ff8a-4870-b283-19f1b86ed5c7)
  )
  (text "- R1 = R2 × (VOUT/1.23 − 1) " (at 66.04 125.73 0)
    (effects (font (size 1.27 1.27)) (justify left bottom))
    (uuid 87542fec-61c9-47d2-8539-f2d1b64077af)
  )

  (label "Vin" (at 113.03 77.47 0)
    (effects (font (size 1.27 1.27)) (justify left bottom))
    (uuid 01722361-b505-4f04-a44c-6fa9c075878f)
  )
  (label "V_out" (at 179.07 77.47 180)
    (effects (font (size 1.27 1.27)) (justify right bottom))
    (uuid bb2c2dbe-f155-452d-905b-8ab46fb453cd)
  )

  (symbol (lib_id "power:GND") (at 116.84 104.14 0) (unit 1)
    (in_bom yes) (on_board yes) (fields_autoplaced)
    (uuid 06d3d779-7d8d-45f2-97c0-a8b7a4a3aee5)
    (property "Reference" "#PWR020" (id 0) (at 116.84 110.49 0)
      (effects (font (size 1.27 1.27)) hide)
    )
    (property "Value" "GND" (id 1) (at 116.84 109.22 0))
    (property "Footprint" "" (id 2) (at 116.84 104.14 0)
      (effects (font (size 1.27 1.27)) hide)
    )
    (property "Datasheet" "" (id 3) (at 116.84 104.14 0)
      (effects (font (size 1.27 1.27)) hide)
    )
    (pin "1" (uuid 17519bbe-6fbc-4e98-96d8-dbdd5d69b466))
  )

  (symbol (lib_id "power:GND") (at 152.4 104.14 0) (unit 1)
    (in_bom yes) (on_board yes) (fields_autoplaced)
    (uuid 2d1be94c-aa08-42a3-9709-761346766d97)
    (property "Reference" "#PWR022" (id 0) (at 152.4 110.49 0)
      (effects (font (size 1.27 1.27)) hide)
    )
    (property "Value" "GND" (id 1) (at 152.4 109.22 0))
    (property "Footprint" "" (id 2) (at 152.4 104.14 0)
      (effects (font (size 1.27 1.27)) hide)
    )
    (property "Datasheet" "" (id 3) (at 152.4 104.14 0)
      (effects (font (size 1.27 1.27)) hide)
    )
    (pin "1" (uuid 23264fe8-931d-41b5-95fd-51063b445e60))
  )

  (symbol (lib_id "Device:C") (at 116.84 99.06 0) (unit 1)
    (in_bom yes) (on_board yes) (fields_autoplaced)
    (uuid 4171cce1-2902-481d-b61a-27b9f5342511)
    (property "Reference" "C3" (id 0) (at 120.65 97.7899 0)
      (effects (font (size 1.27 1.27)) (justify left))
    )
    (property "Value" "2.2u" (id 1) (at 120.65 100.3299 0)
      (effects (font (size 1.27 1.27)) (justify left))
    )
    (property "Footprint" "Capacitor_SMD:C_0603_1608Metric" (id 2) (at 117.8052 102.87 0)
      (effects (font (size 1.27 1.27)) hide)
    )
    (property "Datasheet" "~" (id 3) (at 116.84 99.06 0)
      (effects (font (size 1.27 1.27)) hide)
    )
    (pin "1" (uuid 4df7cfa2-9ef8-4c29-8971-8ebd235620d0))
    (pin "2" (uuid 078d2444-00de-4c2c-b71b-4e57f95f8e59))
  )

  (symbol (lib_id "power:GND") (at 142.24 101.6 0) (unit 1)
    (in_bom yes) (on_board yes) (fields_autoplaced)
    (uuid 50662301-7300-48e2-a862-aaf58852ff5b)
    (property "Reference" "#PWR0101" (id 0) (at 142.24 107.95 0)
      (effects (font (size 1.27 1.27)) hide)
    )
    (property "Value" "GND" (id 1) (at 142.24 106.68 0))
    (property "Footprint" "" (id 2) (at 142.24 101.6 0)
      (effects (font (size 1.27 1.27)) hide)
    )
    (property "Datasheet" "" (id 3) (at 142.24 101.6 0)
      (effects (font (size 1.27 1.27)) hide)
    )
    (pin "1" (uuid 0c1d8f8e-3f4b-423a-a1fe-13fe1597bddc))
  )

  (symbol (lib_id "Device:R") (at 165.1 82.55 90) (unit 1)
    (in_bom yes) (on_board yes)
    (uuid 896e68d7-64fb-4995-b30b-48a609e81447)
    (property "Reference" "R11" (id 0) (at 166.37 80.01 90)
      (effects (font (size 1.27 1.27)) (justify left))
    )
    (property "Value" "73.2k" (id 1) (at 167.64 85.09 90)
      (effects (font (size 1.27 1.27)) (justify left))
    )
    (property "Footprint" "Resistor_SMD:R_0603_1608Metric" (id 2) (at 165.1 84.328 90)
      (effects (font (size 1.27 1.27)) hide)
    )
    (property "Datasheet" "~" (id 3) (at 165.1 82.55 0)
      (effects (font (size 1.27 1.27)) hide)
    )
    (pin "1" (uuid f7f6fe9f-1234-44b9-8455-db1f345211eb))
    (pin "2" (uuid bd39157b-b3ba-49b9-8e38-f4d398bbafe8))
  )

  (symbol (lib_id "power:GND") (at 171.45 104.14 0) (unit 1)
    (in_bom yes) (on_board yes) (fields_autoplaced)
    (uuid 940e51c5-5e91-4afb-91e9-cac229e988ad)
    (property "Reference" "#PWR023" (id 0) (at 171.45 110.49 0)
      (effects (font (size 1.27 1.27)) hide)
    )
    (property "Value" "GND" (id 1) (at 171.45 109.22 0))
    (property "Footprint" "" (id 2) (at 171.45 104.14 0)
      (effects (font (size 1.27 1.27)) hide)
    )
    (property "Datasheet" "" (id 3) (at 171.45 104.14 0)
      (effects (font (size 1.27 1.27)) hide)
    )
    (pin "1" (uuid 75c0f03d-d8bc-4aa9-b718-c9f7f6710b9b))
  )

  (symbol (lib_id "Regulator_Switching:LM2731YMF") (at 142.24 90.17 0) (unit 1)
    (in_bom yes) (on_board yes) (fields_autoplaced)
    (uuid 9da5edd0-a526-410c-8fe1-9c03d7bf711e)
    (property "Reference" "U1" (id 0) (at 142.24 80.01 0))
    (property "Value" "LM2731YMF" (id 1) (at 142.24 82.55 0))
    (property "Footprint" "Package_TO_SOT_SMD:SOT-23-5" (id 2) (at 143.51 96.52 0)
      (effects (font (size 1.27 1.27) italic) (justify left) hide)
    )
    (property "Datasheet" "http://www.ti.com/lit/ds/symlink/lm2731.pdf" (id 3) (at 142.24 87.63 0)
      (effects (font (size 1.27 1.27)) hide)
    )
    (pin "1" (uuid a58bd5f4-1614-4f4c-9782-78d30f30a36a))
    (pin "2" (uuid 00823b02-39df-48b1-bde9-ea072446d836))
    (pin "3" (uuid e9f92955-566d-4edc-ab45-858d4b309aee))
    (pin "4" (uuid 6b766e6d-7d56-48af-abd3-3fc2580f1876))
    (pin "5" (uuid becd75ac-6563-4433-8606-473512b44042))
  )

  (symbol (lib_id "Device:R") (at 152.4 99.06 180) (unit 1)
    (in_bom yes) (on_board yes)
    (uuid aea17e62-6823-46e7-b551-99bdc60b6293)
    (property "Reference" "R10" (id 0) (at 149.86 97.79 90)
      (effects (font (size 1.27 1.27)) (justify left))
    )
    (property "Value" "13.3k" (id 1) (at 154.94 96.52 90)
      (effects (font (size 1.27 1.27)) (justify left))
    )
    (property "Footprint" "Resistor_SMD:R_0603_1608Metric" (id 2) (at 154.178 99.06 90)
      (effects (font (size 1.27 1.27)) hide)
    )
    (property "Datasheet" "~" (id 3) (at 152.4 99.06 0)
      (effects (font (size 1.27 1.27)) hide)
    )
    (pin "1" (uuid e1e22ab8-e4f5-49da-b74b-98f944d9ee01))
    (pin "2" (uuid e42f8097-40b3-4bcd-aac2-d83c63eee3fc))
  )

  (symbol (lib_id "Device:L") (at 130.81 77.47 90) (unit 1)
    (in_bom yes) (on_board yes) (fields_autoplaced)
    (uuid affb5f93-24b3-4b46-b9e2-bbd25d399a96)
    (property "Reference" "L1" (id 0) (at 130.81 71.12 90))
    (property "Value" "10u" (id 1) (at 130.81 73.66 90))
    (property "Footprint" "Inductor_SMD:L_0603_1608Metric" (id 2) (at 130.81 77.47 0)
      (effects (font (size 1.27 1.27)) hide)
    )
    (property "Datasheet" "~" (id 3) (at 130.81 77.47 0)
      (effects (font (size 1.27 1.27)) hide)
    )
    (pin "1" (uuid 076ff7ec-4c59-4e6c-8f1b-9919b90abe7d))
    (pin "2" (uuid ed7c2c13-d9a7-471e-9d4d-f243a1aae8fa))
  )

  (symbol (lib_id "Device:C") (at 171.45 99.06 0) (unit 1)
    (in_bom yes) (on_board yes)
    (uuid d639f069-28aa-48d8-a96a-be851ccf82b1)
    (property "Reference" "C5" (id 0) (at 175.26 97.7899 0)
      (effects (font (size 1.27 1.27)) (justify left))
    )
    (property "Value" "4.7u" (id 1) (at 175.26 100.3299 0)
      (effects (font (size 1.27 1.27)) (justify left))
    )
    (property "Footprint" "Capacitor_SMD:C_0603_1608Metric" (id 2) (at 172.4152 102.87 0)
      (effects (font (size 1.27 1.27)) hide)
    )
    (property "Datasheet" "~" (id 3) (at 171.45 99.06 0)
      (effects (font (size 1.27 1.27)) hide)
    )
    (pin "1" (uuid ba2e7182-8ac2-4c61-b00f-fa5f72b69d8a))
    (pin "2" (uuid 59a23bd5-7705-409e-b144-c04cfcb37fda))
  )

  (symbol (lib_id "Device:D_Schottky") (at 157.48 77.47 180) (unit 1)
    (in_bom yes) (on_board yes) (fields_autoplaced)
    (uuid df9ee7ca-6e4d-46c9-aad9-28ba5ecacd72)
    (property "Reference" "D3" (id 0) (at 157.7975 71.12 0))
    (property "Value" "D_Schottky" (id 1) (at 157.7975 73.66 0))
    (property "Footprint" "Diode_SMD:D_0603_1608Metric" (id 2) (at 157.48 77.47 0)
      (effects (font (size 1.27 1.27)) hide)
    )
    (property "Datasheet" "https://gr.mouser.com/datasheet/2/80/CDBU0530_HF_RevA797179-2489986.pdf" (id 3) (at 157.48 77.47 0)
      (effects (font (size 1.27 1.27)) hide)
    )
    (pin "1" (uuid b497ba98-5096-4641-96a7-8e9907d456b9))
    (pin "2" (uuid 325fc96f-aab9-4a4a-9872-458b80d00a2b))
  )

  (symbol (lib_id "Device:C") (at 165.1 92.71 270) (unit 1)
    (in_bom yes) (on_board yes)
    (uuid f24a86f7-e3cc-457f-b4ef-32b9a4b22ee2)
    (property "Reference" "C4" (id 0) (at 165.1 88.9 90))
    (property "Value" "360p" (id 1) (at 165.1 96.52 90))
    (property "Footprint" "Capacitor_SMD:C_0603_1608Metric" (id 2) (at 161.29 93.6752 0)
      (effects (font (size 1.27 1.27)) hide)
    )
    (property "Datasheet" "~" (id 3) (at 165.1 92.71 0)
      (effects (font (size 1.27 1.27)) hide)
    )
    (pin "1" (uuid b7488dfc-adcf-4a4a-ae83-fd5621b5b2ce))
    (pin "2" (uuid 1f2c9016-f175-4846-aa6f-7c2bc8e50a49))
  )

  (sheet_instances
    (path "/" (page "1"))
  )

  (symbol_instances
    (path "/06d3d779-7d8d-45f2-97c0-a8b7a4a3aee5"
      (reference "#PWR01") (unit 1) (value "GND") (footprint "")
    )
    (path "/51e74f6b-1093-4977-a1b2-76b92314f1bc"
      (reference "#PWR02") (unit 1) (value "GND") (footprint "")
    )
    (path "/2d1be94c-aa08-42a3-9709-761346766d97"
      (reference "#PWR03") (unit 1) (value "GND") (footprint "")
    )
    (path "/940e51c5-5e91-4afb-91e9-cac229e988ad"
      (reference "#PWR?") (unit 1) (value "GND") (footprint "")
    )
    (path "/4171cce1-2902-481d-b61a-27b9f5342511"
      (reference "C1") (unit 1) (value "2.2u") (footprint "")
    )
    (path "/f24a86f7-e3cc-457f-b4ef-32b9a4b22ee2"
      (reference "C2") (unit 1) (value "360p") (footprint "")
    )
    (path "/d639f069-28aa-48d8-a96a-be851ccf82b1"
      (reference "C3") (unit 1) (value "4.7u") (footprint "")
    )
    (path "/df9ee7ca-6e4d-46c9-aad9-28ba5ecacd72"
      (reference "D1") (unit 1) (value "D_Schottky") (footprint "")
    )
    (path "/affb5f93-24b3-4b46-b9e2-bbd25d399a96"
      (reference "L1") (unit 1) (value "10u") (footprint "")
    )
    (path "/4d768aee-1a6b-419f-a9ff-d9fcc92c3e59"
      (reference "R1") (unit 1) (value "47k") (footprint "")
    )
    (path "/896e68d7-64fb-4995-b30b-48a609e81447"
      (reference "R3") (unit 1) (value "73.2k") (footprint "")
    )
    (path "/aea17e62-6823-46e7-b551-99bdc60b6293"
      (reference "R?") (unit 1) (value "13.3k") (footprint "")
    )
    (path "/9da5edd0-a526-410c-8fe1-9c03d7bf711e"
      (reference "U1") (unit 1) (value "LM2731YMF") (footprint "Package_TO_SOT_SMD:SOT-23-5")
    )
  )
)
